is_russian_nation = {
	OR = {
		original_tag = VTY
		original_tag = WRS
		original_tag = MIR
		original_tag = UKH
		original_tag = NIK
		original_tag = VOL
		original_tag = KST
		original_tag = GAY
		original_tag = KIR
		original_tag = BKR
		original_tag = CHU
		original_tag = MAR
		original_tag = PRM
		original_tag = TAR
		original_tag = SAM
		original_tag = ORE
		original_tag = ORS
		original_tag = OMS
		original_tag = ISH
		original_tag = TOB
		original_tag = UDM
		original_tag = KOM
		original_tag = VOR
		original_tag = PAV
		original_tag = ERS
		original_tag = ALT
		original_tag = KEM
		original_tag = MIR
		original_tag = KHA
		original_tag = SAH
		original_tag = SVO
		original_tag = IRK
		original_tag = UIL
		original_tag = BRY
		original_tag = WCH
		original_tag = AMR
		original_tag = SEV
		original_tag = YAK
		original_tag = MAG
		original_tag = URL
		original_tag = RSB
		original_tag = NCH
		original_tag = ESB
		original_tag = CKT
		original_tag = KMC
		original_tag = BAS
		original_tag = CHR
		original_tag = FAV
		original_tag = VLY
		original_tag = OMO
		original_tag = KOL
		original_tag = VIL
		original_tag = CHK
		original_tag = PSK
		original_tag = SMO
		original_tag = ORL
		original_tag = VNH
		original_tag = VLG
		original_tag = PEN
		original_tag = MOS
		original_tag = PET
		original_tag = RSB
		original_tag = BBB
		original_tag = BSB
		original_tag = KAL
	}
}

is_russian_unifier = {
	OR = {
		original_tag = WRS
		original_tag = KIR
		original_tag = SAM
		original_tag = NIK
		original_tag = PRM

		original_tag = OMS
		original_tag = ISH
		original_tag = TOB

		original_tag = ERS
		original_tag = KHA
		original_tag = PAV
		original_tag = SVO
		original_tag = KEM
		
		original_tag = WCH
		original_tag = AMR
		original_tag = MAG
		original_tag = OMO
		original_tag = BRY
		original_tag = IRK
	}
}

is_kazakh_unifier = {
	OR = {
		original_tag = DER
		original_tag = KAZ
		original_tag = KOK
		original_tag = SEM
		original_tag = AKT
		original_tag = ARL
	}
}

is_central_russian_nation = {
	OR = {
		original_tag = WRS
		original_tag = UKH
		original_tag = VTY
		original_tag = NIK
		original_tag = MIR
		original_tag = SAM
		original_tag = CHU
		original_tag = KST
		original_tag = VOL
		original_tag = KIR
		original_tag = MAR
		original_tag = TAR
		original_tag = PRM
		original_tag = GAY
		original_tag = BKR
	}
}

is_west_siberian_nation = {
	OR = {
		original_tag = OMS
		original_tag = FAV
		original_tag = UDM
		original_tag = TOB
		original_tag = ISH
		original_tag = KOM
		original_tag = VOR
	}
}

is_central_siberian_nation = {
	OR = {
		original_tag = ERS
		original_tag = KHA
		original_tag = ALT
		original_tag = KEM
		original_tag = PAV
		original_tag = SVO
		original_tag = SAH
		original_tag = KAL
	}
}

is_far_eastern_nation = {
	OR = {
		original_tag = MAG
		original_tag = KMC
		original_tag = IRK
		original_tag = SEV
		original_tag = BRY
		original_tag = WCH
		original_tag = AMR
		original_tag = OMO
		original_tag = YAK
	}
}

is_wasteland = {
	OR = {
		AND = {
			original_tag = OMO
			OMO = {
				NOT = {
					has_country_leader = {
						name = "Alexander Men"
						ruling_only = yes
					}
				}
			}
		}
		original_tag = CHK
		original_tag = KOL
		original_tag = VIL
		original_tag = CHR
	}
}

is_kazakh_nation = {
	OR = {
		original_tag = KAZ
		original_tag = ARL
		original_tag = AKT
		original_tag = DON
		original_tag = KOK
		original_tag = DER
		original_tag = SEM
	}
}

is_central_asian_nation = {
	OR = {
		original_tag = KRK
		original_tag = UZB
		original_tag = KYR
		original_tag = TAJ
		original_tag = TRK
	}
}

is_tatar_nation = {
	OR = {
		original_tag = TAR
		original_tag = BKR
	}
}

is_southern_urals_nation = {
	OR = {
		original_tag = ORE
		original_tag = URL
		original_tag = BAS
		original_tag = ORS
	}
}

is_moskowien_splits = {
	OR = {
		tag = PET
		tag = RSB
		tag = PSK
		tag = MOS
		tag = SMO
		tag = BSB
		tag = ORL
		tag = PEN
		tag = VNH
		tag = BBB
		tag = VLG
	}
}

can_form_southern_urals = {
	AND = {
		owns_state = 582
		owns_state = 652
		owns_state = 846
		owns_state = 847
		owns_state = 848
		owns_state = 849
		owns_state = 852
	}
}

can_form_west_russia = {
	AND = {
		owns_state = 214
		owns_state = 249
		owns_state = 250
		owns_state = 251
		owns_state = 252
		owns_state = 256
		owns_state = 262
		owns_state = 351
		owns_state = 397
		owns_state = 398
		owns_state = 399
		owns_state = 400
		owns_state = 651
		owns_state = 752
		owns_state = 753
		owns_state = 755
		owns_state = 850
		owns_state = 851
		owns_state = 853
		owns_state = 854
		owns_state = 855
		owns_state = 856
		owns_state = 857
		owns_state = 860
		owns_state = 861
		owns_state = 862
		owns_state = 864
		owns_state = 865
		owns_state = 866
		owns_state = 867
		owns_state = 868
		owns_state = 869
		owns_state = 870
	}
}

can_form_west_siberia = {
	AND = {
		owns_state = 403
		owns_state = 571
		owns_state = 572
		owns_state = 573
		owns_state = 579
		owns_state = 580
		owns_state = 653
		owns_state = 863
		owns_state = 871
	}
}

can_form_central_siberia = {
	AND = {
		owns_state = 40
		owns_state = 329
		owns_state = 516
		owns_state = 568
		owns_state = 569
		owns_state = 570
		owns_state = 576
		owns_state = 577
		owns_state = 578
		owns_state = 654
		owns_state = 757
		owns_state = 887
		owns_state = 888
	}
}

can_form_far_east = {
	AND = {
		owns_state = 561
		owns_state = 562
		owns_state = 563
		owns_state = 564
		owns_state = 565
		owns_state = 566
		owns_state = 574
		owns_state = 575
		owns_state = 637
		owns_state = 644
		owns_state = 759
		owns_state = 760
		owns_state = 761
		owns_state = 886
		owns_state = 889
		owns_state = 890
		owns_state = 891
	}
}

can_form_kazakhstan = {
	AND = {
		owns_state = 402
		owns_state = 404
		owns_state = 406
		owns_state = 407
		owns_state = 583
		owns_state = 587
		owns_state = 588
		owns_state = 589
		owns_state = 590
	}
}

can_form_tatarstan = {
	AND = {
		owns_state = 249
		owns_state = 256
		owns_state = 651
		owns_state = 854
		owns_state = 853
	}
}

is_west_russian_state = {
	OR = {
		state = 214
		state = 249
		state = 250
		state = 251
		state = 252
		state = 256
		state = 262
		state = 351
		state = 397
		state = 398
		state = 399
		state = 400
		state = 651
		state = 652
		state = 752
		state = 753
		state = 755
		state = 849
		state = 850
		state = 851
		state = 852
		state = 853
		state = 854
		state = 855
		state = 856
		state = 857
		state = 858
		state = 859
		state = 860
		state = 861
		state = 862
		state = 864
		state = 865
		state = 866
		state = 867
		state = 868
		state = 869
		state = 870
	}
}

is_west_siberia_state = {
	OR = {
		state = 403
		state = 571
		state = 572
		state = 573
		state = 579
		state = 580
		state = 581
		state = 582
		state = 653
		state = 754
		state = 756
		state = 844
		state = 845
		state = 846
		state = 847
		state = 848
		state = 863
		state = 871
	}
}

is_central_siberia_state = {
	OR = {
		state = 40
		state = 329
		state = 516
		state = 567
		state = 568
		state = 569
		state = 570
		state = 576
		state = 577
		state = 578
		state = 654
		state = 757
		state = 758
		state = 814
		state = 887
		state = 888
	}
}

is_far_east_state = {
	OR = {
		state = 561
		state = 562
		state = 563
		state = 564
		state = 565
		state = 566
		state = 574
		state = 575
		state = 637
		state = 644
		state = 657
		state = 759
		state = 760
		state = 761
		state = 886
		state = 889
		state = 890
		state = 891
		state = 1364
	}
}

is_kazakh_state = {
	OR = {
		state = 402
		state = 404
		state = 406
		state = 407
		state = 583
		state = 587
		state = 588
		state = 589
		state = 590
	}
}

WSR_WSB_is_compatible = {
	if = {
		limit = {
			has_country_flag = RUS_regional_stage
		}
		OR = {
			AND = {
				WSR = {
					original_tag = NIK
					OR = {
						has_government = social_democrat
						has_government = social_liberal
						has_government = social_conservative
						has_government = authoritarian_democrat
						has_government = despotism
					}
				}
				WSB = {
					original_tag = TOB
				}
			}
			AND = {
				WSR = {
					original_tag = NIK
					OR = {
						has_government = socialist
					}
				}
				WSB = {
					original_tag = TOB
					has_government = authoritarian_democrat
				}
			}
			AND = {
				WSR = {
					original_tag = NIK
					OR = {
						has_government = communist
					}
				}
				OR = {
					WSB = {
						original_tag = TOB
						has_government = authoritarian_democrat
					}
					WSB = {
						original_tag = ISH
					}
				}
			}
			AND = {
				WSR = {
					original_tag = KIR
				}
				WSB = {
					original_tag = TOB
				}
			}
			AND = {
				WSR = {
					original_tag = SAM
					has_government = authoritarian_democrat
				}
				WSB = {
					original_tag = TOB
				}
			}
			AND = {
				WSR = {
					original_tag = SAM
					has_government = despotism
				}
				WSB = {
					original_tag = TOB
					has_government = authoritarian_democrat
				}
			}
			AND = {
				WSR = {
					original_tag = WRS
					has_country_leader = {
						name = "Georgy Zhukov"
						ruling_only = yes
					}
				}
				OR = {
					WSB = {
						original_tag = ISH
					}
					WSB = {
						AND = {
							original_tag = TOB
							has_government = authoritarian_democrat
						}
					}
				}
			}
		}
	}
	else = { always = no }
	
}

CSB_FST_is_compatible = {
	if = {
		limit = {
			has_country_flag = RUS_regional_stage
		}
		OR = {
			AND = {
				CSB = {
					original_tag = ERS
				}
				FST = {
					original_tag = MAG
					has_government = authoritarian_democrat
				}
			}
			AND = {
				CSB = {
					original_tag = PAV
				}
				OR = {
					FST = {
						original_tag = MAG
					}
					FST = {
						original_tag = WCH
					}
				}
			}
			AND = {
				CSB = {
					original_tag = KHA
				}
				FST = {
					original_tag = BRY
					has_government = socialist
				}
			}
			AND = {
				CSB = {
					original_tag = SVO
				}
				OR = {
					FST = {
						original_tag = BRY
					}
					FST = {
						original_tag = IRK
					}
				}
			}
			AND = {
				CSB = {
					original_tag = SAH
				}
				FST = {
					original_tag = MAG
				}
			}
		}
	}
	else = { always = no }
}

RWS_SIB_is_compatible = {
	if = {
		limit = {
			has_country_flag = RUS_superregional_stage
		}
		OR = {
			AND = {
				RWS = {
					original_tag = WRS
					has_country_leader = {
						name = "Mikhail Tukhachevsky"
						ruling_only = yes
					}
				}
				SIB = {
					original_tag = SVO
				}
			}
			AND = {
				RWS = {
					original_tag = WRS
					has_country_leader = {
						name = "Georgy Zhukov"
						ruling_only = yes
					}
				}
				OR = {
					SIB = {
						original_tag = SVO
					}
					SIB = {
						original_tag = IRK
					}
					SIB = {
						original_tag = BRY
					}
				}
			}
			AND = {
				RWS = {
					original_tag = NIK
					has_government = fascism
				}
				SIB = {
					original_tag = MAG
					OR = {
						has_government = fascism
						has_government = despotism
					}
				}
			}
			AND = {
				RWS = {
					original_tag = NIK
					has_government = socialist
				}
				OR = {
					SIB = {
						original_tag = KHA
					}
					SIB = {
						original_tag = SVO
					}
					SIB = {
						original_tag = KEM
						has_government = authoritarian_democrat
					}
					SIB = {
						original_tag = IRK
						NOT = {
							has_country_leader = {
								name = "Genrikh Yagoda"
								ruling_only = yes
							}
						}
					}
					SIB = {
						original_tag = BRY
					}
				}
			}
			AND = {
				RWS = {
					original_tag = NIK
					has_government = communist
					has_country_leader = {
						name = "Mikhail Suslov"
						ruling_only = yes
					}
				}
				OR = {
					SIB = {
						original_tag = SVO
					}
					SIB = {
						original_tag = IRK
					}
					SIB = {
						original_tag = BRY
					}
				}
			}
			AND = {
				RWS = {
					original_tag = NIK
					OR = {
						has_government = social_liberal
						has_government = social_democrat
						has_government = authoritarian_democrat
					}
				}
				OR = {
					SIB = {
						original_tag = ERS
					}
					SIB = {
						original_tag = PAV
					}
					SIB = {
						original_tag = SAH
					}
					SIB = {
						original_tag = KEM
						has_government = authoritarian_democrat
					}
					SIB = {
						original_tag = MAG
						NOT = {
							OR = {
								has_government = fascism
								has_government = despotism
							}
						}
					}
					SIB = {
						original_tag = WCH
						has_country_leader = {
							name = "Mikhail II"
							ruling_only = yes
						}
					}
				}
			}
			AND = {
				RWS = {
					original_tag = NIK
					has_government = despotism
				}
				OR = {
					SIB = {
						original_tag = ERS
					}
					SIB = {
						original_tag = PAV
					}
					SIB = {
						original_tag = SAH
					}
					SIB = {
						original_tag = KEM
						has_government = despotism
					}
					SIB = {
						original_tag = WCH
						has_country_leader = {
							name = "Mikhail II"
							ruling_only = yes
						}
					}
					SIB = {
						original_tag = MAG
						NOT = {
							OR = {
								has_government = fascism
								has_government = despotism
							}
						}
					}
				}
			}
			AND = {
				RWS = {
					original_tag = SAM
					has_government = authoritarian_democrat
				}
				OR = {
					SIB = {
						original_tag = PAV
					}
					SIB = {
						original_tag = SAH
					}
					SIB = {
						original_tag = KEM
					}
					SIB = {
						original_tag = MAG
						NOT = {
							OR = {
								has_government = fascism
								has_government = despotism
							}
						}
					}
					SIB = {
						original_tag = WCH
					}
				}
			}
			AND = {
				RWS = {
					original_tag = SAM
					has_government = despotism
				}
				SIB = {
					original_tag = MAG
				}
				SIB = {
					original_tag = WCH
				}
				SIB = {
					original_tag = PAV
				}
				SIB = {
					original_tag = SAH
				}
			}
			AND = {
				RWS = {
					original_tag = KIR
				}
				OR = {
					SIB = {
						original_tag = PAV
					}
					SIB = {
						original_tag = SAH
					}
					SIB = {
						original_tag = KEM
						has_government = authoritarian_democrat
					}
					SIB = {
						original_tag = MAG
						NOT = {
							OR = {
								has_government = fascism
								has_government = despotism
							}
						}
					}
					SIB = {
						original_tag = WCH
						has_country_leader = {
							name = "Mikhail II"
							ruling_only = yes
						}
					}
				}
			}
			AND = {
				RWS = {
					original_tag = TOB
					has_government = authoritarian_democrat
				}
				OR = {
					SIB = {
						original_tag = PAV
					}
					SIB = {
						original_tag = KHA
						has_government = despotism
					}
					SIB = {
						original_tag = SVO
					}
					SIB = {
						original_tag = KEM
					}
					SIB = {
						original_tag = SAH
					}
					SIB = {
						original_tag = MAG
						NOT = {
							OR = {
								has_government = fascism
								has_government = despotism
							}
						}
					}
					SIB = {
						original_tag = BRY
					}
				}
			}
			AND = {
				RWS = {
					original_tag = TOB
					has_government = social_conservative
				}
				OR = {
					SIB = {
						original_tag = ERS
					}
					SIB = {
						original_tag = PAV
					}
					SIB = {
						original_tag = SVO
					}
					SIB = {
						original_tag = KEM
						has_government = authoritarian_democrat
					}
					SIB = {
						original_tag = SAH
					}
					SIB = {
						original_tag = MAG
						NOT = {
							OR = {
								has_government = fascism
								has_government = despotism
							}
						}
					}
					SIB = {
						original_tag = WCH
						has_country_leader = {
							name = "Mikhail II"
							ruling_only = yes
						}
					}
				}
			}
			AND = {
				RWS = {
					original_tag = ISH
					has_country_leader = {
						name = "Lazar Kaganovich"
						ruling_only = yes
					}
				}
				OR = {
					SIB = {
						original_tag = SVO
					}
					SIB = {
						original_tag = SAH
					}
				}
			}
			AND = {
				RWS = {
					original_tag = ISH
					has_country_leader = {
						name = "Nikita Khrushchev"
						ruling_only = yes
					}
				}
				OR = {
					SIB = {
						original_tag = SVO
					}
					SIB = {
						original_tag = SAH
					}
					SIB = {
						original_tag = IRK
					}
					SIB = {
						original_tag = BRY
						has_government = communist
					}
				}
			}
		}
	}
	else = { always = no }
}

RUS_KAZ_is_compatible = {
	custom_trigger_tooltip = {
		tooltip = RUS_KAZ_is_compatible_tooltip
		if = {
			limit = {
				OR = {
					has_government = social_democrat
					has_government = social_liberal
					has_government = market_liberal
					has_government = social_conservative
					has_government = authoritarian_democrat
				}
			}
			OR = {
				AND = {
					has_global_flag = RUS_shattered_kazakhstan
					country_exists = KAZ
				}
				KZK = { tag = SEM }
			}
		}
		else_if = {
			limit = {
				OR = {
					has_government = socialist
					has_government = communist
				}
			}
			OR = {
				AND = {
					has_global_flag = RUS_shattered_kazakhstan
					country_exists = DON
				}
				KZK = { tag = KAZ }
			}
		}
		else = {
			always = no
		}
	}
}

is_russian_state = {
	OR = {
		state = 213
		state = 214
		state = 215
		state = 249
		state = 250
		state = 251
		state = 252
		state = 256
		state = 262
		state = 351
		state = 397
		state = 398
		state = 399
		state = 400
		state = 651
		state = 752
		state = 753
		state = 755
		state = 850
		state = 851
		state = 853
		state = 854
		state = 855
		state = 856
		state = 857
		state = 860
		state = 861
		state = 862
		state = 864
		state = 865
		state = 866
		state = 867
		state = 868
		state = 869
		state = 870
		state = 852
		state = 849
		state = 652
		state = 847
		state = 848
		state = 582
		state = 846
		state = 754
		state = 572
		state = 573
		state = 871
		state = 403
		state = 653
		state = 580
		state = 845
		state = 581
		state = 756
		state = 844
		state = 863
		state = 579
		state = 571
		state = 516
		state = 577
		state = 578
		state = 887
		state = 888
		state = 576
		state = 570
		state = 40
		state = 569
		state = 654
		state = 757
		state = 568
		state = 567
		state = 758
		state = 329
		state = 814
		state = 566
		state = 565
		state = 564
		state = 574
		state = 575
		state = 761
		state = 890
		state = 760
		state = 574
		state = 889
		state = 759
		state = 644
		state = 891
		state = 637
		state = 563
		state = 561
		state = 1364
		state = 886
		state = 562
	}
}

NIK_has_left_government = {
	OR = {
		has_government = socialist
		has_government = communist
	}
}

NIK_has_right_government = {
	OR = {
		has_government = fascism
		has_government = national_socialism
		has_government = ultranational_socialism
		AND = {
			has_government = despotism
			has_country_leader = {
				name = "Sergey Taboritsky"
				ruling_only = yes
			}
		}
	}
}

NIK_has_center_government = {
	OR = {
		has_government = social_democrat
		has_government = social_liberal
		has_government = social_conservative
		has_government = authoritarian_democrat
		AND = {
			has_government = despotism
			has_country_leader = {
				name = "Svetlana Stalina"
				ruling_only = yes
			}
		}
	}
}

NIK_zhdanov_favors_enabled = {
	NOT = {		
		OR = {
			has_country_flag = NIK_Zhdanov_Dead
			has_country_flag = NIK_Zhdanov_Retired
			has_country_flag = NIK_Zhdanov_Arrested
			has_country_flag = NIK_VOZNESENSKY_CUT_TIES
		}
	}
	has_country_leader = {
		name = "Nikolai Voznesensky"
		ruling_only = yes
	}
}

RUS_is_CIA_sponsored = { #sanity check for CIA ops
	is_russian_unifier = yes
	NOT = { has_government = national_socialism }
	NOT = { has_government = burgundian_system }
	NOT = { has_government = fascism } # no magadan exception since they get their own special ops
	NOT = { has_government = ultranational_socialism } # same as above for omsk

	if = { # West Russian
		limit = { is_central_russian_nation = yes }
		NOT = { original_tag = KIR original_tag = SAM original_tag = PRM }
		NOT = {
			has_country_leader = {
				name = "Mikhail Tukhachevsky"
				ruling_only = yes
			}
			has_country_leader = {
				name = "Mikhail Suslov"
				ruling_only = yes
			}
			has_country_leader = {
				name = "Sergey Taboritsky"
				ruling_only = yes
			}
		}
	}
	if = { # Siberian
		limit = { OR = {  is_west_siberian_nation = yes is_central_siberian_nation = yes } }
		NOT = { original_tag = KHA }
	}
	if = { # Far Eastern
		limit = { is_far_eastern_nation = yes }
		NOT = { original_tag = AMR original_tag = MAG }
		NOT = {
			AND = {
				original_tag = WCH
				has_country_leader = {
					name = "Boris Shepunov"
					ruling_only = yes
				}	
			}
		}
	}
}

RUS_has_control_over_aid_port = {
	if = {
		limit = { NOT = { is_far_eastern_nation = yes } }
		if = { # West Russian or West Siberian
			limit = { OR = { is_central_russian_nation = yes is_west_siberian_nation = yes } }
			controls_state = 1359 # Murmansk
		}
		if = { # Central Siberian
			limit = { is_central_siberian_nation = yes }
			controls_state = 562 # Magadan
		}
	}
}

RUS_can_diplomatize_with_finland_or_whatever = {
	OR = {
		AND = {
			original_tag = WRS
			has_country_leader = {
				name = "Georgy Zhukov"
				ruling_only = yes
			}
		}
		AND = {
			original_tag = NIK
			OR = {
				has_government = fascism
				has_government = social_conservative
				has_government = authoritarian_democrat
				has_government = social_liberal
				has_government = social_democrat
				has_government = socialist
				has_government = communist
				has_country_leader = {
					name = "Svetlana Stalina"
					ruling_only = yes
				}
			}
		}
		original_tag = KIR
		AND = {
			original_tag = SAM
			OR = {
				has_government = authoritarian_democrat
				has_government = despotism
			}
		}
	}
}

RUS_consider_communist_regime = {
	is_russian_nation = yes
	OR = {
		has_government = communist
		has_government = socialist
		has_country_leader = {
			name = "Nikolai Averin"
			ruling_only = yes
		}
		has_country_leader = {
			name = "Ivan Serov"
			ruling_only = yes
		}
		AND = {
			tag = TOB
			has_government = authoritarian_democrat
		}
	}
}

RUS_consider_stalinist_regime = {
	OR = {
		has_country_leader = {
			name = "Lazar Kaganovich"
			ruling_only = yes
		}
		has_country_leader = {
			name = "Nikita Khrushchev"
			ruling_only = yes
		}
	}
}

RUS_consider_aryan_regime = {
	#OR = {
		has_country_leader = {
			name = "Gutrum Vagner"
			ruling_only = yes
		}
	#	has_country_leader = {
	#		name = "Velimir"
	#		ruling_only = yes
	#	}
	#}
}